hw2/hw2.vcd
$version Generated by VerilatedVcd $end
$timescale 1ps $end
 $scope module TOP $end
  $scope module hw2_tb $end
   $var wire 1 F clk $end
   $var wire 1 # rst $end
   $var wire 1 $ start $end
   $var wire 6 % M [5:0] $end
   $var wire 6 & N [5:0] $end
   $var wire 1 ? finish $end
   $var wire 32 ' i [31:0] $end
   $var wire 32 M j [31:0] $end
   $var wire 32 ( cycle_count [31:0] $end
   $var wire 1 ) tb_passed $end
   $scope module dut $end
    $var wire 1 F clk $end
    $var wire 1 # rst $end
    $var wire 1 $ start $end
    $var wire 6 % M [5:0] $end
    $var wire 6 & N [5:0] $end
    $var wire 1 ? finish $end
    $var wire 64 G rdata [63:0] $end
    $var wire 12 @ wdata [11:0] $end
    $var wire 9 A raddr [8:0] $end
    $var wire 6 B waddr [5:0] $end
    $var wire 1 I ren $end
    $var wire 1 C wen $end
    $scope module u_input_image $end
     $var wire 32 N DATA_WIDTH [31:0] $end
     $var wire 32 O ADDR_WIDTH [31:0] $end
     $var wire 32 P RAM_SIZE [31:0] $end
     $var wire 120 Q MEM_FILE [119:0] $end
     $var wire 1 F clk $end
     $var wire 1 U we $end
     $var wire 1 I en $end
     $var wire 9 A addr [8:0] $end
     $var wire 64 V data_i [63:0] $end
     $var wire 64 G data_o [63:0] $end
    $upscope $end
    $scope module u_output_image $end
     $var wire 32 X DATA_WIDTH [31:0] $end
     $var wire 32 Y ADDR_WIDTH [31:0] $end
     $var wire 32 N RAM_SIZE [31:0] $end
     $var wire 8 Z MEM_FILE [7:0] $end
     $var wire 1 F clk $end
     $var wire 1 C we $end
     $var wire 1 C en $end
     $var wire 6 B addr [5:0] $end
     $var wire 12 @ data_i [11:0] $end
     $var wire 12 J data_o [11:0] $end
    $upscope $end
    $scope module u_vmm $end
     $var wire 1 F clk $end
     $var wire 1 # rst $end
     $var wire 1 $ start $end
     $var wire 6 % M [5:0] $end
     $var wire 6 & N [5:0] $end
     $var wire 64 G rdata [63:0] $end
     $var wire 1 I ren $end
     $var wire 1 C wen $end
     $var wire 9 A raddr [8:0] $end
     $var wire 6 B waddr [5:0] $end
     $var wire 12 @ wdata [11:0] $end
     $var wire 1 ? finish $end
     $var wire 6 * col_counter [5:0] $end
     $var wire 2 + row_counter [1:0] $end
     $var wire 2 , vec_counter [1:0] $end
     $var wire 6 - M_buf [5:0] $end
     $var wire 6 . N_buf [5:0] $end
     $var wire 256 / vec [255:0] $end
     $var wire 256 7 vec_shadow [255:0] $end
     $var wire 12 K next_wdata [11:0] $end
     $var wire 32 D i [31:0] $end
     $var wire 32 [ S_IDLE [31:0] $end
     $var wire 32 \ S_WAIT_SRAM [31:0] $end
     $var wire 32 ] S_RD_VEC [31:0] $end
     $var wire 32 ^ S_VMM [31:0] $end
     $var wire 32 _ S_OUTPUT [31:0] $end
     $var wire 32 ` S_DONE [31:0] $end
     $var wire 3 E state [2:0] $end
     $var wire 3 L n_state [2:0] $end
    $upscope $end
   $upscope $end
  $upscope $end
 $upscope $end
$enddefinitions $end


#0
0#
0$
b000000 %
b000000 &
b00000000000000000000000000000000 '
b00000000000000000000000000000000 (
1)
b000000 *
b00 +
b00 ,
b000000 -
b000000 .
b0000000000000000000000000000000000000000000000000000000000000000000000000000000000000000000000000000000000000000000000000000000000000000000000000000000000000000000000000000000000000000000000000000000000000000000000000000000000000000000000000000000000000000 /
b0000000000000000000000000000000000000000000000000000000000000000000000000000000000000000000000000000000000000000000000000000000000000000000000000000000000000000000000000000000000000000000000000000000000000000000000000000000000000000000000000000000000000000 7
0?
b000000000000 @
b000000000 A
b000000 B
0C
b00000000000000000000000000000000 D
b000 E
0F
b0000000000000000000000000000000000000000000000000000000000000000 G
0I
b000000000000 J
b000000000000 K
b000 L
b00000000000000000000000000000000 M
b00000000000000000000000001000000 N
b00000000000000000000000000001001 O
b00000000000000000000000100000100 P
b011010010110111001110000011101010111010001011111011010010110110101100001011001110110010100101110011011010110010101101101 Q
0U
b0000000000000000000000000000000000000000000000000000000000000000 V
b00000000000000000000000000001100 X
b00000000000000000000000000000110 Y
b00000000 Z
b00000000000000000000000000000000 [
b00000000000000000000000000000001 \
b00000000000000000000000000000010 ]
b00000000000000000000000000000011 ^
b00000000000000000000000000000100 _
b00000000000000000000000000000101 `
#5000
1F
b1011111111100010011010011010000001011011110001000110111110111011 G
#10000
0F
#15000
1F
#20000
1#
0F
#25000
1F
#30000
0F
#35000
1F
#40000
0#
0F
#45000
1F
#50000
0F
#55000
1F
#60000
0F
#65000
1F
#70000
0F
#75000
1F
#80000
1$
b100000 %
b000011 &
0F
b001 L
#85000
b100000 -
b000011 .
b001 E
1F
b010 L
#90000
0$
b000000 %
b000000 &
0F
#95000
b00000000000000000000000000000001 (
b11 +
b000000001 A
b010 E
1F
1I
#100000
0F
#105000
b00000000000000000000000000000010 (
b000011 *
b10 +
b01 ,
b1011111111100010011010011010000001011011110001000110111110111011000000000000000000000000000000000000000000000000000000000000000000000000000000000000000000000000000000000000000000000000000000000000000000000000000000000000000000000000000000000000000000000000 /
b1011111111100010011010011010000001011011110001000110111110111011000000000000000000000000000000000000000000000000000000000000000000000000000000000000000000000000000000000000000000000000000000000000000000000000000000000000000000000000000000000000000000000000 7
b000000010 A
1F
b1101111011110001010101010100001110001100010110001001010110110010 G
#110000
0F
#115000
b00000000000000000000000000000011 (
b01 +
b10 ,
b1101111011110001010101010100001110001100010110001001010110110010101111111110001001101001101000000101101111000100011011111011101100000000000000000000000000000000000000000000000000000000000000000000000000000000000000000000000000000000000000000000000000000000 /
b1101111011110001010101010100001110001100010110001001010110110010101111111110001001101001101000000101101111000100011011111011101100000000000000000000000000000000000000000000000000000000000000000000000000000000000000000000000000000000000000000000000000000000 7
1F
b0100111111100000111111010110011010111001110010011111000100010001 G
0I
#120000
0F
#125000
b00000000000000000000000000000100 (
b00 +
b11 ,
b0000000000000000000000000000000000000000000000000000000000000000110111101111000101010101010000111000110001011000100101011011001010111111111000100110100110100000010110111100010001101111101110110000000000000000000000000000000000000000000000000000000000000000 /
b0000000000000000000000000000000000000000000000000000000000000000110111101111000101010101010000111000110001011000100101011011001010111111111000100110100110100000010110111100010001101111101110110000000000000000000000000000000000000000000000000000000000000000 7
1F
b011 L
#130000
0F
#135000
b00000000000000000000000000000101 (
b01 +
b00 ,
b0000000000000000000000000000000000000000000000000000000000000000000000000000000000000000000000000000000000000000000000000000000011011110111100010101010101000011100011000101100010010101101100101011111111100010011010011010000001011011110001000110111110111011 /
b0000000000000000000000000000000000000000000000000000000000000000000000000000000000000000000000000000000000000000000000000000000011011110111100010101010101000011100011000101100010010101101100101011111111100010011010011010000001011011110001000110111110111011 7
b000000011 A
b00000000000000000000000000010000 D
b011 E
1F
b111111001001 K
#140000
0F
#145000
b00000000000000000000000000000110 (
b00 +
b0000000000000000000000000000000000000000000000000000000000000000000000000000000000000000000000000000000000000000000000000000000000000000000000000000000000000000000000000000000000000000000000001101111011110001010101010100001110001100010110001001010110110010 /
b111111001001 @
b000000100 A
1F
b0010111010100100110011010011110100101000101001010110100111111110 G
b111101100110 K
b100 L
#150000
0F
#155000
b00000000000000000000000000000111 (
b000010 *
b11 +
b0000000000000000000000000000000000000000000000000000000000000000000000000000000000000000000000000000000000000000000000000000000011011110111100010101010101000011100011000101100010010101101100101011111111100010011010011010000001011011110001000110111110111011 /
b111100101111 @
1C
b100 E
1F
b1000001101111111101110101101111111010000111100010100111011101010 G
1I
b000000000000 K
b011 L
#160000
0F
#165000
b00000000000000000000000000001000 (
b01 +
b000000000000 @
b000000101 A
b000001 B
0C
b011 E
1F
0I
b111100101111 J
b000001101110 K
#170000
0F
#175000
b00000000000000000000000000001001 (
b00 +
b0000000000000000000000000000000000000000000000000000000000000000000000000000000000000000000000000000000000000000000000000000000000000000000000000000000000000000000000000000000000000000000000001101111011110001010101010100001110001100010110001001010110110010 /
b000001101110 @
b000000110 A
1F
b0011111111010110001010101001001000111010011011000001011010011010 G
b000000000000 J
b000001000100 K
b100 L
#180000
0F
#185000
b00000000000000000000000000001010 (
b000001 *
b11 +
b0000000000000000000000000000000000000000000000000000000000000000000000000000000000000000000000000000000000000000000000000000000011011110111100010101010101000011100011000101100010010101101100101011111111100010011010011010000001011011110001000110111110111011 /
b000010110010 @
1C
b100 E
1F
b1000100001010111000011001110011101001001000110100010010010110001 G
1I
b000000000000 K
b011 L
#190000
0F
#195000
b00000000000000000000000000001011 (
b01 +
b000000000000 @
b000000111 A
b000010 B
0C
b011 E
1F
0I
b000010110010 J
b000010010011 K
#200000
0F
#205000
b00000000000000000000000000001100 (
b00 +
b0000000000000000000000000000000000000000000000000000000000000000000000000000000000000000000000000000000000000000000000000000000000000000000000000000000000000000000000000000000000000000000000001101111011110001010101010100001110001100010110001001010110110010 /
b000010010011 @
b000001000 A
1F
b1100001011111111101000011101101101110001111110100110111111111001 G
b000000000000 J
b111110001011 K
b100 L
#210000
0F
#215000
b00000000000000000000000000001101 (
b000000 *
b11 +
b0000000000000000000000000000000000000000000000000000000000000000000000000000000000000000000000000000000000000000000000000000000011011110111100010101010101000011100011000101100010010101101100101011111111100010011010011010000001011011110001000110111110111011 /
b000000011110 @
1C
b100 E
1F
b0000000000000000000000000000000000000000000000000000000000000000 G
1I
b000000000000 K
b101 L
#220000
0F
#225000
b00000000000000000000000000001110 (
b01 +
1?
b000000000000 @
b000001001 A
b000011 B
0C
b101 E
1F
0I
b000000011110 J
b000 L
#230000
0F
#235000
b00000000000000000000000000000011 '
b00000000000000000000000000001111 (
0?
b000 E
1F
b000000000000 J
#240000
0F
#245000
b00 +
b000000 -
b000000 .
b0000000000000000000000000000000000000000000000000000000000000000000000000000000000000000000000000000000000000000000000000000000000000000000000000000000000000000000000000000000000000000000000000000000000000000000000000000000000000000000000000000000000000000 /
b0000000000000000000000000000000000000000000000000000000000000000000000000000000000000000000000000000000000000000000000000000000000000000000000000000000000000000000000000000000000000000000000000000000000000000000000000000000000000000000000000000000000000000 7
b000000000 A
b000000 B
1F
#250000
0F
#255000
1F
b1011111111100010011010011010000001011011110001000110111110111011 G
b111100101111 J
